[{
    "type": "man",
    "products": [
      {
        "id": 1,
        "sizes": [
          "XL",
          "L",
          "M"
        ],
        "colors": [
          "blue",
          "yellow",
          "grey"
        ],
        "image": "item-img.png",
        "name": "t-shirt",
        "price": 5
      },
      {
        "id": 2,
        "sizes": [
          "XL",
          "L",
          "M"
        ],
        "image": "livello-3.png",
        "name": "pants FORCLAZ",
        "price": 15
      },
      {
        "id": 3,
        "sizes": [
          "XL",
          "L",
          "M"
        ],
        "image": "livello-4.png",
        "name": "backpack",
        "price": 15
      },
      {
        "id": 4,
        "sizes": [
          "XL",
          "L",
          "M"
        ],
        "image": "livello-3.png",
        "name": "t-shirt",
        "price": 5
      }
    ]
  },
  {
    "type": "woman",
    "products": [
      {
        "id": 5,
        "sizes": [
          "XL",
          "L",
          "M"
        ],
        "image": "woman-item.png",
        "name": "giacket",
        "price": "5"
      },
      {
        "id": 6,
        "sizes": [
          "XL",
          "L",
          "M"
        ],
        "image": "livello-6.png",
        "name": "trekking shoes",
        "price": "5"
      },
      {
        "id": 7,
        "sizes": [
          "XL",
          "L",
          "M"
        ],
        "colors": [
          "pink",
          "white"
        ],
        "image": "livello-7.png",
        "name": "t-shirt",
        "price": "5"
      },
      {
        "id": 8,
        "sizes": [
          "XL",
          "L",
          "M"
        ],
        "image": "woman-item.png",
        "name": "t-shirt",
        "price": "5"
      }
    ]
  },
  {
    "type": "children",
    "products": [
      {
        "id": 9,
        "sizes": [
          "XL",
          "L",
          "M"
        ],
        "colors": [
          "red",
          "green",
          "blue"
        ],
        "image": "woman-item.png",
        "name": "t-shirt",
        "price": "5"
      },
      {
        "id": 10,
        "sizes": [
          "XL",
          "L",
          "M"
        ],
        "colors": [
          "red",
          "green",
          "blue"
        ],
        "image": "woman-item.png",
        "name": "t-shirt",
        "price": "5"
      },
      {
        "id": 11,
        "sizes": [
          "XL",
          "L",
          "M"
        ],
        "colors": [
          "red",
          "green",
          "blue"
        ],
        "image": "woman-item.png",
        "name": "t-shirt",
        "price": "5"
      },
      {
        "id": 12,
        "sizes": [
          "XL",
          "L",
          "M"
        ],
        "colors": [
          "red",
          "green",
          "blue"
        ],
        "image": "woman-item.png",
        "name": "t-shirt",
        "price": "5"
      }
    ]
  }
]
